{"slot": "broken",
 "projects": [{"name": "BadCMT",
               "version": "HEAD"},
              {"name": "BadCMake",
               "version": "HEAD"},
              {"name": "Missing",
               "version": "HEAD"},
              {"name": "Gaudi",
               "version": "HEAD"}]
}
